…
``` r
crime <- hate_crime %>%
  select(DATA_YEAR, STATE_NAME) %>%
  filter(DATA_YEAR >= "2000")
crime
```

    ## # A tibble: 143,931 × 2
    ##    DATA_YEAR STATE_NAME
    ##        <dbl> <chr>     
    ##  1      2000 Alaska    
    ##  2      2000 Alaska    
    ##  3      2000 Alaska    
    ##  4      2000 Alaska    
    ##  5      2000 Arkansas  
    ##  6      2000 Arkansas  
    ##  7      2000 Arkansas  
    ##  8      2000 Arizona   
    ##  9      2000 Arizona   
    ## 10      2000 Arizona   
    ## # ℹ 143,921 more rows
